{
    "breadcrumbs": [
        {
            "label": "Include",
            "signal_field_name": "person_titles",
            "value": "Technical Recruiter",
            "display_name": "Technical Recruiter"
        },
        {
            "label": "Person Locations",
            "signal_field_name": "person_locations",
            "value": "United States",
            "display_name": "United States"
        }
    ],
    "partial_results_only": false,
    "has_join": false,
    "disable_eu_prospecting": false,
    "partial_results_limit": 10000,
    "pagination": {
        "page": 1,
        "per_page": 25,
        "total_entries": 259,
        "total_pages": 11
    },
    "contacts": [],
    "salesforce_users": [],
    "people": [
        {
            "id": "6698e7102aceaa0001bf2139",
            "first_name": "Michelle",
            "last_name": "T",
            "name": "Michelle T",
            "linkedin_url": null,
            "title": "Technical Recruiter",
            "email_status": "verified",
            "photo_url": "https://static.licdn.com/aero-v1/sc/h/9c8pery4andzj6ohjkjp54ma2",
            "twitter_url": null,
            "github_url": null,
            "facebook_url": null,
            "extrapolated_email_confidence": null,
            "headline": "Technical Recruiter at Google",
            "email": "email_not_unlocked@domain.com",
            "organization_id": "5fc93db64c38d300d6aa24e6",
            
            "state": "California",
            "city": "Los Angeles",
            "country": "United States",
            "restricted": true,

            "is_likely_to_engage": true,
            "departments": [
                "master_human_resources"
            ],
            "subdepartments": [
                "recruiting_talent_acquisition"
            ],
            "seniority": "entry",
            "functions": [
                "human_resources"
            ],
            "intent_strength": null,
            "show_intent": true,
            "email_domain_catchall": true,
            "revealed_for_current_team": true
        }
    ],
    "num_fetch_result": 2,
    "derived_params": null
}